…
print(boostrap_result)
```

    ## # A tibble: 5,000 × 3
    ##    number r.squared log_b1_b2
    ##     <int>     <dbl>     <dbl>
    ##  1      1     0.898     -5.44
    ##  2      2     0.928    NaN   
    ##  3      3     0.925    NaN   
    ##  4      4     0.931    NaN   
    ##  5      5     0.915    NaN   
    ##  6      6     0.918     -7.18
    ##  7      7     0.922    NaN   
    ##  8      8     0.910     -6.65
    ##  9      9     0.910     -6.21
    ## 10     10     0.939    NaN   
    ## # ℹ 4,990 more rows
…
